ISCA_2017:
Network, Partition size, Throughput Gain, Latency Penalty, Throughput, Lantency (Cycles(x1000)), Max Latency (Cycles(x1000)), Res_unit (1x9 Array), Deploy Speed (MHz), Throughput (Img/s), Accuracy, Partitions,
Alexnet_485T_SCP, 1, N/A, N/A, 0.000498, 2006000, 2006000, 66, 100, 49, 32-bit floating point, [7x84],
Alexnet_485T, 4, 1.289, 3.107, 0.000642, 6232000, 1558000, 50, 100, 61, 32-bit floating point, [2x64 1x96 3x24 8x19],
Alexnet_690T_SCP, 1, N/A, N/A, 0.000565, 1768000, 1768000, 64, 100, 56, 32-bit floating point, [9x64],
Alexnet_690T, 6, 1.515, 3.962, 0.00085616, 7008000, 1168000, 64, 100, 80, 32-bit floating point, [1x64 1x96 2x64 1x48 1x48 3x64],
SqueezeNet_485T_SCP, 1, N/A, N/A, 0.00286, 349000, 349000, 242, 170, 487, 16-bit fixed-point, [32x68],
SqueezeNet_485T, 6, 1.886, 3.181, 0.00541, 1110000, 185000, 249, 170, 913, 16-bit fixed-point, [6x16 3x64 4x64 8x64 8x128 16x10],
SqueezeNet_690T_SCP, 1, N/A, N/A, 0.00302, 331000, 331000, 310, 170, 512, 16-bit fixed-point, [32x87],
SqueezeNet_690T, 6, 2.283, 2.628, 0.00690, 870000, 145000, 248, 170, 1167, 16-bit fixed-point, [8x16 3x64 11x32 8x64 5x256 16x26],

GoogleNet, ?, 2.0, ?

FPGA'19: 
Network, Partition size, Throughput Gain, Latency Penalty, Throughput, Lantency (Cycles(x1000)), Max Latency (Cycles(x1000)), Res_unit (1x9 Array), Deploy Speed (MHz), Throughput (Img/s), Accuracy, I/O lanes,
GoogleNet_VU3P, 4, ?, ?, 1.411e-6, 2834684, 708671, 247, 720, 1016, 8-bit unsigned integer, [21x8 32x16 96x16 8x1],
GoogleNet_VU9P, 12, ?, ?, 4.233e-06, 2834684, 708671, 741, 720, 3046, 8-bit unsigned integer, [21x8 32x16 96x16 8x1]*3,

* VU9P is a larger FPGA that they literally add 3 copies of VU3P into it